{"current_page":1,"data":[{"id":36,"seller_id":1,"name":"Premium Cotton Sarong","description":"Unisex premium cotton sarong with traditional designs.","marked_price":2000,"final_price":2000,"discount_rate":0,"commission":0,"quantity":50,"delivery_fee":250,"delivery_timeline":null,"return_policy_days":14,"size":"Free Size","color":"Blue & Black","approval_status":1,"reject_reason":null,"rating_avg":"4.50","rating_count":1,"created_at":"2026-04-24T12:07:02.000000Z","updated_at":"2026-04-24T12:07:02.000000Z","seller":{"id":1,"first_name":"Sithum","last_name":"Seller","username":"Sithum","email":"sithum@example.com","contact":"0712345678","nic":"987654321V","address":"123 Seller St, Colombo","store_name":"Sithum Store","profile_picture":"images\/seller-2026-04-23-00-46-30-150.jpeg","ref_no":null,"status":1,"bank_name":"aaa","branch":"aaa","account_no":"84684654","account_holder_name":"sithum","wallet_balance":43920,"total_commission":16720,"claimed_amount":102000,"nic_image":null,"nic_back":null,"created_at":"2026-04-12T01:58:56.000000Z","updated_at":"2026-04-23T02:50:16.000000Z","promo_code":"TXSB001","referred_by_marketeer_id":null,"referred_by_seller_id":null,"profile_picture_url":"http:\/\/127.0.0.1:8000\/storage\/images\/seller-2026-04-23-00-46-30-150.jpeg"},"categories":[{"id":1,"name":"Clothes","created_at":"2026-04-12T01:58:56.000000Z","updated_at":"2026-04-12T01:58:56.000000Z","pivot":{"product_id":36,"category_id":1}}],"images":[]},{"id":38,"seller_id":1,"name":"Casual Printed Sarong","description":"Casual printed sarong, best for home use.","marked_price":1200,"final_price":1200,"discount_rate":0,"commission":0,"quantity":100,"delivery_fee":250,"delivery_timeline":null,"return_policy_days":14,"size":"Free Size","color":"Green & Yellow","approval_status":1,"reject_reason":null,"rating_avg":"4.50","rating_count":1,"created_at":"2026-04-24T12:07:02.000000Z","updated_at":"2026-04-24T12:07:02.000000Z","seller":{"id":1,"first_name":"Sithum","last_name":"Seller","username":"Sithum","email":"sithum@example.com","contact":"0712345678","nic":"987654321V","address":"123 Seller St, Colombo","store_name":"Sithum Store","profile_picture":"images\/seller-2026-04-23-00-46-30-150.jpeg","ref_no":null,"status":1,"bank_name":"aaa","branch":"aaa","account_no":"84684654","account_holder_name":"sithum","wallet_balance":43920,"total_commission":16720,"claimed_amount":102000,"nic_image":null,"nic_back":null,"created_at":"2026-04-12T01:58:56.000000Z","updated_at":"2026-04-23T02:50:16.000000Z","promo_code":"TXSB001","referred_by_marketeer_id":null,"referred_by_seller_id":null,"profile_picture_url":"http:\/\/127.0.0.1:8000\/storage\/images\/seller-2026-04-23-00-46-30-150.jpeg"},"categories":[{"id":1,"name":"Clothes","created_at":"2026-04-12T01:58:56.000000Z","updated_at":"2026-04-12T01:58:56.000000Z","pivot":{"product_id":38,"category_id":1}},{"id":2,"name":"Electronics","created_at":"2026-04-12T01:58:56.000000Z","updated_at":"2026-04-12T01:58:56.000000Z","pivot":{"product_id":38,"category_id":2}}],"images":[]},{"id":33,"seller_id":1,"name":"Three  Panel Printed wall art","description":"Three  Panel Printed wall art","marked_price":7700,"final_price":7777,"discount_rate":0,"commission":1,"quantity":4,"delivery_fee":9,"delivery_timeline":"7","return_policy_days":14,"size":null,"color":"[{\"size\":\"Standard\",\"variants\":[{\"color\":\"#000000\",\"qty\":4}]}]","approval_status":1,"reject_reason":null,"rating_avg":"4.50","rating_count":1,"created_at":"2026-04-22T05:25:04.000000Z","updated_at":"2026-04-22T15:28:12.000000Z","seller":{"id":1,"first_name":"Sithum","last_name":"Seller","username":"Sithum","email":"sithum@example.com","contact":"0712345678","nic":"987654321V","address":"123 Seller St, Colombo","store_name":"Sithum Store","profile_picture":"images\/seller-2026-04-23-00-46-30-150.jpeg","ref_no":null,"status":1,"bank_name":"aaa","branch":"aaa","account_no":"84684654","account_holder_name":"sithum","wallet_balance":43920,"total_commission":16720,"claimed_amount":102000,"nic_image":null,"nic_back":null,"created_at":"2026-04-12T01:58:56.000000Z","updated_at":"2026-04-23T02:50:16.000000Z","promo_code":"TXSB001","referred_by_marketeer_id":null,"referred_by_seller_id":null,"profile_picture_url":"http:\/\/127.0.0.1:8000\/storage\/images\/seller-2026-04-23-00-46-30-150.jpeg"},"categories":[{"id":5,"name":"Home & Decos","created_at":"2026-04-19T02:18:25.000000Z","updated_at":"2026-04-19T02:18:25.000000Z","pivot":{"product_id":33,"category_id":5}}],"images":[{"id":55,"product_id":33,"image_path":"images\/pro-2026-04-22-05-25-04-973.jpeg","color":"#000000","size":"Standard","sort_order":1,"created_at":"2026-04-22T05:25:04.000000Z","updated_at":"2026-04-22T05:25:04.000000Z","url":"http:\/\/127.0.0.1:8000\/storage\/images\/pro-2026-04-22-05-25-04-973.jpeg"}]},{"id":32,"seller_id":1,"name":"Crop Top","description":"Crop Top","marked_price":5400,"final_price":6750,"discount_rate":0,"commission":25,"quantity":8,"delivery_fee":250,"delivery_timeline":null,"return_policy_days":14,"size":null,"color":"[{\"size\":\"S\",\"variants\":[{\"color\":\"#0abb07\",\"qty\":8}]}]","approval_status":1,"reject_reason":null,"rating_avg":"5.00","rating_count":1,"created_at":"2026-04-22T05:23:18.000000Z","updated_at":"2026-04-24T03:41:53.000000Z","seller":{"id":1,"first_name":"Sithum","last_name":"Seller","username":"Sithum","email":"sithum@example.com","contact":"0712345678","nic":"987654321V","address":"123 Seller St, Colombo","store_name":"Sithum Store","profile_picture":"images\/seller-2026-04-23-00-46-30-150.jpeg","ref_no":null,"status":1,"bank_name":"aaa","branch":"aaa","account_no":"84684654","account_holder_name":"sithum","wallet_balance":43920,"total_commission":16720,"claimed_amount":102000,"nic_image":null,"nic_back":null,"created_at":"2026-04-12T01:58:56.000000Z","updated_at":"2026-04-23T02:50:16.000000Z","promo_code":"TXSB001","referred_by_marketeer_id":null,"referred_by_seller_id":null,"profile_picture_url":"http:\/\/127.0.0.1:8000\/storage\/images\/seller-2026-04-23-00-46-30-150.jpeg"},"categories":[{"id":1,"name":"Clothes","created_at":"2026-04-12T01:58:56.000000Z","updated_at":"2026-04-12T01:58:56.000000Z","pivot":{"product_id":32,"category_id":1}}],"images":[{"id":54,"product_id":32,"image_path":"images\/pro-2026-04-22-05-23-18-557.jpeg","color":"#0abb07","size":"S","sort_order":1,"created_at":"2026-04-22T05:23:18.000000Z","updated_at":"2026-04-22T05:23:18.000000Z","url":"http:\/\/127.0.0.1:8000\/storage\/images\/pro-2026-04-22-05-23-18-557.jpeg"}]},{"id":31,"seller_id":1,"name":"Crop Top","description":"Crop Top","marked_price":4150,"final_price":5188,"discount_rate":0,"commission":25,"quantity":48,"delivery_fee":10,"delivery_timeline":"7","return_policy_days":14,"size":null,"color":"[{\"size\":\"S\",\"variants\":[{\"color\":\"#da1b1b\",\"qty\":48}]}]","approval_status":1,"reject_reason":null,"rating_avg":"4.50","rating_count":1,"created_at":"2026-04-22T05:21:49.000000Z","updated_at":"2026-04-22T17:13:31.000000Z","seller":{"id":1,"first_name":"Sithum","last_name":"Seller","username":"Sithum","email":"sithum@example.com","contact":"0712345678","nic":"987654321V","address":"123 Seller St, Colombo","store_name":"Sithum Store","profile_picture":"images\/seller-2026-04-23-00-46-30-150.jpeg","ref_no":null,"status":1,"bank_name":"aaa","branch":"aaa","account_no":"84684654","account_holder_name":"sithum","wallet_balance":43920,"total_commission":16720,"claimed_amount":102000,"nic_image":null,"nic_back":null,"created_at":"2026-04-12T01:58:56.000000Z","updated_at":"2026-04-23T02:50:16.000000Z","promo_code":"TXSB001","referred_by_marketeer_id":null,"referred_by_seller_id":null,"profile_picture_url":"http:\/\/127.0.0.1:8000\/storage\/images\/seller-2026-04-23-00-46-30-150.jpeg"},"categories":[{"id":1,"name":"Clothes","created_at":"2026-04-12T01:58:56.000000Z","updated_at":"2026-04-12T01:58:56.000000Z","pivot":{"product_id":31,"category_id":1}}],"images":[{"id":53,"product_id":31,"image_path":"images\/pro-2026-04-22-05-21-49-447.jpeg","color":"#da1b1b","size":"S","sort_order":1,"created_at":"2026-04-22T05:21:49.000000Z","updated_at":"2026-04-22T05:21:49.000000Z","url":"http:\/\/127.0.0.1:8000\/storage\/images\/pro-2026-04-22-05-21-49-447.jpeg"}]},{"id":30,"seller_id":1,"name":"Butterfly Bouquet","description":"Butterfly Bouquet","marked_price":3800,"final_price":4712,"discount_rate":0,"commission":24,"quantity":10,"delivery_fee":250,"delivery_timeline":null,"return_policy_days":14,"size":null,"color":"[{\"size\":\"Standard\",\"variants\":[{\"color\":\"#ffffff\",\"qty\":\"10\"}]}]","approval_status":1,"reject_reason":null,"rating_avg":"4.50","rating_count":1,"created_at":"2026-04-22T05:19:09.000000Z","updated_at":"2026-04-22T05:26:07.000000Z","seller":{"id":1,"first_name":"Sithum","last_name":"Seller","username":"Sithum","email":"sithum@example.com","contact":"0712345678","nic":"987654321V","address":"123 Seller St, Colombo","store_name":"Sithum Store","profile_picture":"images\/seller-2026-04-23-00-46-30-150.jpeg","ref_no":null,"status":1,"bank_name":"aaa","branch":"aaa","account_no":"84684654","account_holder_name":"sithum","wallet_balance":43920,"total_commission":16720,"claimed_amount":102000,"nic_image":null,"nic_back":null,"created_at":"2026-04-12T01:58:56.000000Z","updated_at":"2026-04-23T02:50:16.000000Z","promo_code":"TXSB001","referred_by_marketeer_id":null,"referred_by_seller_id":null,"profile_picture_url":"http:\/\/127.0.0.1:8000\/storage\/images\/seller-2026-04-23-00-46-30-150.jpeg"},"categories":[{"id":5,"name":"Home & Decos","created_at":"2026-04-19T02:18:25.000000Z","updated_at":"2026-04-19T02:18:25.000000Z","pivot":{"product_id":30,"category_id":5}}],"images":[{"id":52,"product_id":30,"image_path":"images\/pro-2026-04-22-05-19-09-814.jpeg","color":"#ffffff","size":"Standard","sort_order":1,"created_at":"2026-04-22T05:19:09.000000Z","updated_at":"2026-04-22T05:19:09.000000Z","url":"http:\/\/127.0.0.1:8000\/storage\/images\/pro-2026-04-22-05-19-09-814.jpeg"}]},{"id":29,"seller_id":1,"name":"One Panel Printed wall art","description":"One Panel Printed wall art","marked_price":2950,"final_price":3658,"discount_rate":0,"commission":24,"quantity":7,"delivery_fee":250,"delivery_timeline":null,"return_policy_days":14,"size":null,"color":"[{\"size\":\"Standard\",\"variants\":[{\"color\":\"#000000\",\"qty\":\"7\"}]}]","approval_status":1,"reject_reason":null,"rating_avg":"4.50","rating_count":1,"created_at":"2026-04-22T05:17:29.000000Z","updated_at":"2026-04-22T05:26:14.000000Z","seller":{"id":1,"first_name":"Sithum","last_name":"Seller","username":"Sithum","email":"sithum@example.com","contact":"0712345678","nic":"987654321V","address":"123 Seller St, Colombo","store_name":"Sithum Store","profile_picture":"images\/seller-2026-04-23-00-46-30-150.jpeg","ref_no":null,"status":1,"bank_name":"aaa","branch":"aaa","account_no":"84684654","account_holder_name":"sithum","wallet_balance":43920,"total_commission":16720,"claimed_amount":102000,"nic_image":null,"nic_back":null,"created_at":"2026-04-12T01:58:56.000000Z","updated_at":"2026-04-23T02:50:16.000000Z","promo_code":"TXSB001","referred_by_marketeer_id":null,"referred_by_seller_id":null,"profile_picture_url":"http:\/\/127.0.0.1:8000\/storage\/images\/seller-2026-04-23-00-46-30-150.jpeg"},"categories":[{"id":5,"name":"Home & Decos","created_at":"2026-04-19T02:18:25.000000Z","updated_at":"2026-04-19T02:18:25.000000Z","pivot":{"product_id":29,"category_id":5}}],"images":[{"id":51,"product_id":29,"image_path":"images\/pro-2026-04-22-05-17-29-099.jpeg","color":"#000000","size":"Standard","sort_order":1,"created_at":"2026-04-22T05:17:29.000000Z","updated_at":"2026-04-22T05:17:29.000000Z","url":"http:\/\/127.0.0.1:8000\/storage\/images\/pro-2026-04-22-05-17-29-099.jpeg"}]},{"id":28,"seller_id":1,"name":"Moon Art","description":"Moon Art","marked_price":6545,"final_price":8181,"discount_rate":0,"commission":25,"quantity":5,"delivery_fee":50,"delivery_timeline":"7","return_policy_days":14,"size":null,"color":"[{\"size\":\"Standard\",\"variants\":[{\"color\":\"#000000\",\"qty\":\"5\"}]}]","approval_status":1,"reject_reason":null,"rating_avg":"4.50","rating_count":1,"created_at":"2026-04-22T05:11:08.000000Z","updated_at":"2026-04-22T05:12:03.000000Z","seller":{"id":1,"first_name":"Sithum","last_name":"Seller","username":"Sithum","email":"sithum@example.com","contact":"0712345678","nic":"987654321V","address":"123 Seller St, Colombo","store_name":"Sithum Store","profile_picture":"images\/seller-2026-04-23-00-46-30-150.jpeg","ref_no":null,"status":1,"bank_name":"aaa","branch":"aaa","account_no":"84684654","account_holder_name":"sithum","wallet_balance":43920,"total_commission":16720,"claimed_amount":102000,"nic_image":null,"nic_back":null,"created_at":"2026-04-12T01:58:56.000000Z","updated_at":"2026-04-23T02:50:16.000000Z","promo_code":"TXSB001","referred_by_marketeer_id":null,"referred_by_seller_id":null,"profile_picture_url":"http:\/\/127.0.0.1:8000\/storage\/images\/seller-2026-04-23-00-46-30-150.jpeg"},"categories":[{"id":5,"name":"Home & Decos","created_at":"2026-04-19T02:18:25.000000Z","updated_at":"2026-04-19T02:18:25.000000Z","pivot":{"product_id":28,"category_id":5}}],"images":[{"id":50,"product_id":28,"image_path":"images\/pro-2026-04-22-05-11-08-792.jpeg","color":"#000000","size":"Standard","sort_order":1,"created_at":"2026-04-22T05:11:08.000000Z","updated_at":"2026-04-22T05:11:08.000000Z","url":"http:\/\/127.0.0.1:8000\/storage\/images\/pro-2026-04-22-05-11-08-792.jpeg"}]},{"id":27,"seller_id":1,"name":"Three  Panel Printed wall art","description":"Three  Panel Printed wall art","marked_price":7700,"final_price":9625,"discount_rate":0,"commission":25,"quantity":5,"delivery_fee":50,"delivery_timeline":"7","return_policy_days":14,"size":null,"color":"[{\"size\":\"Standard\",\"variants\":[{\"color\":\"#000000\",\"qty\":\"5\"}]}]","approval_status":1,"reject_reason":null,"rating_avg":"4.50","rating_count":1,"created_at":"2026-04-22T05:09:09.000000Z","updated_at":"2026-04-22T05:12:21.000000Z","seller":{"id":1,"first_name":"Sithum","last_name":"Seller","username":"Sithum","email":"sithum@example.com","contact":"0712345678","nic":"987654321V","address":"123 Seller St, Colombo","store_name":"Sithum Store","profile_picture":"images\/seller-2026-04-23-00-46-30-150.jpeg","ref_no":null,"status":1,"bank_name":"aaa","branch":"aaa","account_no":"84684654","account_holder_name":"sithum","wallet_balance":43920,"total_commission":16720,"claimed_amount":102000,"nic_image":null,"nic_back":null,"created_at":"2026-04-12T01:58:56.000000Z","updated_at":"2026-04-23T02:50:16.000000Z","promo_code":"TXSB001","referred_by_marketeer_id":null,"referred_by_seller_id":null,"profile_picture_url":"http:\/\/127.0.0.1:8000\/storage\/images\/seller-2026-04-23-00-46-30-150.jpeg"},"categories":[{"id":5,"name":"Home & Decos","created_at":"2026-04-19T02:18:25.000000Z","updated_at":"2026-04-19T02:18:25.000000Z","pivot":{"product_id":27,"category_id":5}}],"images":[{"id":49,"product_id":27,"image_path":"images\/pro-2026-04-22-05-09-09-388.jpeg","color":"#000000","size":"Standard","sort_order":1,"created_at":"2026-04-22T05:09:09.000000Z","updated_at":"2026-04-22T05:09:09.000000Z","url":"http:\/\/127.0.0.1:8000\/storage\/images\/pro-2026-04-22-05-09-09-388.jpeg"}]},{"id":26,"seller_id":1,"name":"Three  Panel Printed wall art","description":"Three  Panel Printed wall art","marked_price":7700,"final_price":9625,"discount_rate":0,"commission":25,"quantity":10,"delivery_fee":250,"delivery_timeline":null,"return_policy_days":14,"size":null,"color":"[{\"size\":\"Standard\",\"variants\":[{\"color\":\"#000000\",\"qty\":\"10\"}]}]","approval_status":1,"reject_reason":null,"rating_avg":"4.50","rating_count":1,"created_at":"2026-04-22T05:07:45.000000Z","updated_at":"2026-04-22T05:12:38.000000Z","seller":{"id":1,"first_name":"Sithum","last_name":"Seller","username":"Sithum","email":"sithum@example.com","contact":"0712345678","nic":"987654321V","address":"123 Seller St, Colombo","store_name":"Sithum Store","profile_picture":"images\/seller-2026-04-23-00-46-30-150.jpeg","ref_no":null,"status":1,"bank_name":"aaa","branch":"aaa","account_no":"84684654","account_holder_name":"sithum","wallet_balance":43920,"total_commission":16720,"claimed_amount":102000,"nic_image":null,"nic_back":null,"created_at":"2026-04-12T01:58:56.000000Z","updated_at":"2026-04-23T02:50:16.000000Z","promo_code":"TXSB001","referred_by_marketeer_id":null,"referred_by_seller_id":null,"profile_picture_url":"http:\/\/127.0.0.1:8000\/storage\/images\/seller-2026-04-23-00-46-30-150.jpeg"},"categories":[{"id":5,"name":"Home & Decos","created_at":"2026-04-19T02:18:25.000000Z","updated_at":"2026-04-19T02:18:25.000000Z","pivot":{"product_id":26,"category_id":5}}],"images":[{"id":48,"product_id":26,"image_path":"images\/pro-2026-04-22-05-07-45-024.jpeg","color":"#000000","size":"Standard","sort_order":1,"created_at":"2026-04-22T05:07:45.000000Z","updated_at":"2026-04-22T05:07:45.000000Z","url":"http:\/\/127.0.0.1:8000\/storage\/images\/pro-2026-04-22-05-07-45-024.jpeg"}]}],"first_page_url":"http:\/\/127.0.0.1:8000\/api\/products?page=1","from":1,"last_page":2,"last_page_url":"http:\/\/127.0.0.1:8000\/api\/products?page=2","links":[{"url":null,"label":"&laquo; Previous","page":null,"active":false},{"url":"http:\/\/127.0.0.1:8000\/api\/products?page=1","label":"1","page":1,"active":true},{"url":"http:\/\/127.0.0.1:8000\/api\/products?page=2","label":"2","page":2,"active":false},{"url":"http:\/\/127.0.0.1:8000\/api\/products?page=2","label":"Next &raquo;","page":2,"active":false}],"next_page_url":"http:\/\/127.0.0.1:8000\/api\/products?page=2","path":"http:\/\/127.0.0.1:8000\/api\/products","per_page":10,"prev_page_url":null,"to":10,"total":17}
